{
  "page": 1,
  "total_results": 19797,
  "total_pages": 990,
  "results": [
    {
      "vote_count": 4804,
      "id": 346364,
      "video": false,
      "vote_average": 7.2,
      "title": "It",
      "popularity": 853.55826,
      "poster_path": "/9E2y5Q7WlCVNEhP5GiVTjhEhx1o.jpg",
      "original_language": "en",
      "original_title": "It",
      "genre_ids": [
        18,
        14,
        27,
        53
      ],
      "backdrop_path": "/tcheoA2nPATCm2vvXw2hVQoaEFD.jpg",
      "adult": false,
      "overview": "In a small town in Maine, seven children known as The Losers Club come face to face with life problems, bullies and a monster that takes the shape of a clown called Pennywise.",
      "release_date": "2017-09-05"
    },
    {
      "vote_count": 1560,
      "id": 181808,
      "video": false,
      "vote_average": 7.4,
      "title": "Star Wars: The Last Jedi",
      "popularity": 765.602056,
      "poster_path": "/xGWVjewoXnJhvxKW619cMzppJDQ.jpg",
      "original_language": "en",
      "original_title": "Star Wars: The Last Jedi",
      "genre_ids": [
        28,
        12,
        14,
        878
      ],
      "backdrop_path": "/5Iw7zQTHVRBOYpA0V6z0yypOPZh.jpg",
      "adult": false,
      "overview": "Rey develops her newly discovered abilities with the guidance of Luke Skywalker, who is unsettled by the strength of her powers. Meanwhile, the Resistance prepares to do battle with the First Order.",
      "release_date": "2017-12-13"
    },
    {
      "vote_count": 590,
      "id": 354912,
      "video": false,
      "vote_average": 7.4,
      "title": "Coco",
      "popularity": 663.530711,
      "poster_path": "/eKi8dIrr8voobbaGzDpe8w0PVbC.jpg",
      "original_language": "en",
      "original_title": "Coco",
      "genre_ids": [
        12,
        16,
        10751
      ],
      "backdrop_path": "/askg3SMvhqEl4OL52YuvdtY40Yb.jpg",
      "adult": false,
      "overview": "Despite his family’s baffling generations-old ban on music, Miguel dreams of becoming an accomplished musician like his idol, Ernesto de la Cruz. Desperate to prove his talent, Miguel finds himself in the stunning and colorful Land of the Dead following a mysterious chain of events. Along the way, he meets charming trickster Hector, and together, they set off on an extraordinary journey to unlock the real story behind Miguel's family history.",
      "release_date": "2017-10-27"
    },
    {
      "vote_count": 1932,
      "id": 141052,
      "video": false,
      "vote_average": 6.6,
      "title": "Justice League",
      "popularity": 535.648925,
      "poster_path": "/9rtrRGeRnL0JKtu9IMBWsmlmmZz.jpg",
      "original_language": "en",
      "original_title": "Justice League",
      "genre_ids": [
        28,
        12,
        14,
        878
      ],
      "backdrop_path": "/o5T8rZxoWSBMYwjsUFUqTt6uMQB.jpg",
      "adult": false,
      "overview": "Fueled by his restored faith in humanity and inspired by Superman's selfless act, Bruce Wayne and Diana Prince assemble a team of metahumans consisting of Barry Allen, Arthur Curry, and Victor Stone to face the catastrophic threat of Steppenwolf and the Parademons who are on the hunt for three Mother Boxes on Earth.",
      "release_date": "2017-11-15"
    },
    {
      "vote_count": 255,
      "id": 353486,
      "video": false,
      "vote_average": 5.9,
      "title": "Jumanji: Welcome to the Jungle",
      "popularity": 485.184572,
      "poster_path": "/bXrZ5iHBEjH7WMidbUDQ0U2xbmr.jpg",
      "original_language": "en",
      "original_title": "Jumanji: Welcome to the Jungle",
      "genre_ids": [
        28,
        12,
        35,
        10751
      ],
      "backdrop_path": "/rz3TAyd5kmiJmozp3GUbYeB5Kep.jpg",
      "adult": false,
      "overview": "The tables are turned as four teenagers are sucked into Jumanji's world - pitted against rhinos, black mambas and an endless variety of jungle traps and puzzles. To survive, they'll play as characters from the game.",
      "release_date": "2017-12-08"
    },
    {
      "vote_count": 5237,
      "id": 211672,
      "video": false,
      "vote_average": 6.4,
      "title": "Minions",
      "popularity": 376.357539,
      "poster_path": "/q0R4crx2SehcEEQEkYObktdeFy.jpg",
      "original_language": "en",
      "original_title": "Minions",
      "genre_ids": [
        10751,
        16,
        12,
        35
      ],
      "backdrop_path": "/qLmdjn2fv0FV2Mh4NBzMArdA0Uu.jpg",
      "adult": false,
      "overview": "Minions Stuart, Kevin and Bob are recruited by Scarlet Overkill, a super-villain who, alongside her inventor husband Herb, hatches a plot to take over the world.",
      "release_date": "2015-06-17"
    },
    {
      "vote_count": 2939,
      "id": 8844,
      "video": false,
      "vote_average": 6.9,
      "title": "Jumanji",
      "popularity": 347.331391,
      "poster_path": "/8wBKXZNod4frLZjAKSDuAcQ2dEU.jpg",
      "original_language": "en",
      "original_title": "Jumanji",
      "genre_ids": [
        12,
        14,
        10751
      ],
      "backdrop_path": "/52lVqTDhIeNTjT7EiJuovXgw6iE.jpg",
      "ad\nult": false,
      "overview": "When siblings Judy and Peter discover an enchanted board game that opens the door to a magical world, they unwittingly invite Alan -- an adult who's been trapped inside the game for 26 years -- into their living room. Alan's only hope for freedom is to finish the game, which proves risky as all three find themselves running from giant rhinoceroses, evil monkeys and other terrifying creatures.",
      "release_date": "1995-12-15"
    },
    {
      "vote_count": 88,
      "id": 355547,
      "video": false,
      "vote_average": 4.5,
      "title": "The Star",
      "popularity": 341.524636,
      "poster_path": "/zms2RpkqjAtCsbjndTG9gAGWvnx.jpg",
      "original_language": "en",
      "original_title": "The Star",
      "genre_ids": [
        35,
        16,
        12
      ],
      "backdrop_path": "/iJ5dkwIHQnq8dfmwSLh7dpETNhi.jpg",
      "adult": false,
      "overview": "A small but brave donkey and his animal friends become the unsung heroes of the greatest story ever told, the first Christmas.",
      "release_date": "2017-11-15"
    },
    {
      "vote_count": 6318,
      "id": 321612,
      "video": false,
      "vote_average": 6.8,
      "title": "Beauty and the Beast",
      "popularity": 337.24964,
      "poster_path": "/tWqifoYuwLETmmasnGHO7xBjEtt.jpg",
      "original_language": "en",
      "original_title": "Beauty and the Beast",
      "genre_ids": [
        10751,
        14,
        10749
      ],
      "backdrop_path": "/6aUWe0GSl69wMTSWWexsorMIvwU.jpg",
      "adult": false,
      "overview": "A live-action adaptation of Disney's version of the classic tale of a cursed prince and a beautiful young woman who helps him break the spell.",
      "release_date": "2017-03-16"
    },
    {
      "vote_count": 30,
      "id": 45054,
      "video": false,
      "vote_average": 5.7,
      "title": "There Be Dragons",
      "popularity": 328.181148,
      "poster_path": "/dKgPtWZkHkTeYQRvLTsO0RBYaQZ.jpg",
      "original_language": "en",
      "original_title": "There Be Dragons",
      "genre_ids": [
        18
      ],
      "backdrop_path": "/z9Li6tsmVlu9Lntg6aToHqr2Utn.jpg",
      "adult": false,
      "overview": "Arising out of the horror of the Spanish Civil War, a candidate for canonization is investigated by a journalist who discovers his own estranged father had a deep, dark and devastating connection to the saint's life.While researching the life of Josemaria Escriva, the controversial founder of Opus Dei, the young journalist Robert uncovers hidden stories of his estranged father Manolo, and is taken on a journey through the dark, terrible secrets of his family’s past.",
      "release_date": "2011-03-25"
    },
    {
      "vote_count": 156,
      "id": 347882,
      "video": false,
      "vote_average": 5.4,
      "title": "Sleight",
      "popularity": 302.198104,
      "poster_path": "/wridRvGxDqGldhzAIh3IcZhHT5F.jpg",
      "original_language": "en",
      "original_title": "Sleight",
      "genre_ids": [
        18,
        53,
        28,
        878
      ],
      "backdrop_path": "/2SEgJ0mHJ7TSdVDbkGU061tR33K.jpg",
      "adult": false,
      "overview": "A young street magician is left to take care of his little sister after his mother's passing and turns to drug dealing in the Los Angeles party scene to keep a roof over their heads. When he gets into trouble with his supplier, his sister is kidnapped and he is forced to rely on both his sleight of hand and brilliant mind to save her.",
      "release_date": "2017-04-28"
    },
    {
      "vote_count": 98,
      "id": 371638,
      "video": false,
      "vote_average": 7.5,
      "title": "The Disaster Artist",
      "popularity": 273.256857,
      "poster_path": "/uCH6FOFsDW6pfvbbmIIswuvuNtM.jpg",
      "original_language": "en",
      "original_title": "The Disaster Artist",
      "genre_ids": [
        18,
        35,
        36
      ],
      "backdrop_path": "/bAI7aPHQcvSZXvt7L11kMJdS0Gm.jpg",
      "adult": false,
      "overview": "An aspiring actor in Hollywood meets an enigmatic stranger by the name of Tommy Wiseau, the meeting leads the actor down a path nobody could have predicted; creating the worst movie ever made.",
      "release_date": "2017-12-01"
    },
    {
      "vote_count": 6138,
      "id": 245891,
      "video": false,
      "vote_average": 7,
      "title": "John Wick",
      "popularity": 271.745647,
      "poster_path": "/5vHssUeVe25bMrof1HyaPyWgaP.jpg",
      "original_language": "en",
      "original_title": "John Wick",
      "genre_ids": [
        28,
        53
      ],
      "backdrop_path": "/umC04Cozevu8nn3JTDJ1pc7PVTn.jpg",
      "adult": false,
      "overview": "Ex-hitman John Wick comes out of retirement to track down the gangsters that took everything from him.",
      "release_date": "2014-10-22"
    },
    {
      "vote_count": 110,
      "id": 460793,
      "video": false,
      "vote_average": 6.5,
      "title": "Olaf's F\nrozen Adventure",
      "popularity": 270.246866,
      "poster_path": "/47pLZ1gr63WaciDfHCpmoiXJlVr.jpg",
      "original_language": "en",
      "original_title": "Olaf's Frozen Adventure",
      "genre_ids": [
        12,
        16,
        35,
        10751,
        14,
        10402
      ],
      "backdrop_path": "/woCxv9kua5uqtRNaiWUBDzrgZnH.jpg",
      "adult": false,
      "overview": "Olaf is on a mission to harness the best holiday traditions for Anna, Elsa, and Kristoff.",
      "release_date": "2017-10-27"
    },
    {
      "vote_count": 1779,
      "id": 343668,
      "video": false,
      "vote_average": 7.1,
      "title": "Kingsman: The Golden Circle",
      "popularity": 221.131712,
      "poster_path": "/34xBL6BXNYFqtHO9zhcgoakS4aP.jpg",
      "original_language": "en",
      "original_title": "Kingsman: The Golden Circle",
      "genre_ids": [
        28,
        12,
        35
      ],
      "backdrop_path": "/uExPmkOHJySrbJyJDJylHDqaT58.jpg",
      "adult": false,
      "overview": "When an attack on the Kingsman headquarters takes place and a new villain rises, Eggsy and Merlin are forced to work together with the American agency known as the Statesman to save the world.",
      "release_date": "2017-09-20"
    },
    {
      "vote_count": 189,
      "id": 406997,
      "video": false,
      "vote_average": 7.6,
      "title": "Wonder",
      "popularity": 215.460711,
      "poster_path": "/ouYgAatYH4JzIThj6FI3UYf31RI.jpg",
      "original_language": "en",
      "original_title": "Wonder",
      "genre_ids": [
        18
      ],
      "backdrop_path": "/f1Jv532UM9j6zrV2XVkHL7HyyIW.jpg",
      "adult": false,
      "overview": "Based on the New York Times bestseller, Wonder tells the inspiring and heartwarming story of August Pullman. Born with facial differences that, up until now, have prevented him from going to a mainstream school, Auggie becomes the most unlikely of heroes when he enters the local fifth grade. As his family, his new classmates, and the larger community all struggle to find their compassion and acceptance, Auggie's extraordinary journey will unite them all and prove you can't blend in when you were born to stand out.",
      "release_date": "2017-11-13"
    },
    {
      "vote_count": 3530,
      "id": 374720,
      "video": false,
      "vote_average": 7.5,
      "title": "Dunkirk",
      "popularity": 212.397575,
      "poster_path": "/bOXBV303Fgkzn2K4FeKDc0O31q4.jpg",
      "original_language": "en",
      "original_title": "Dunkirk",
      "genre_ids": [
        28,
        18,
        36,
        53,
        10752
      ],
      "backdrop_path": "/4yjJNAgXBmzxpS6sogj4ftwd270.jpg",
      "adult": false,
      "overview": "The story of the miraculous evacuation of Allied soldiers from Belgium, Britain, Canada and France, who were cut off and surrounded by the German army from the beaches and harbour of Dunkirk between May 26th and June 4th 1940 during World War II.",
      "release_date": "2017-07-19"
    },
    {
      "vote_count": 6928,
      "id": 177572,
      "video": false,
      "vote_average": 7.7,
      "title": "Big Hero 6",
      "popularity": 204.205398,
      "poster_path": "/9gLu47Zw5ertuFTZaxXOvNfy78T.jpg",
      "original_language": "en",
      "original_title": "Big Hero 6",
      "genre_ids": [
        12,
        10751,
        16,
        28,
        35
      ],
      "backdrop_path": "/2BXd0t9JdVqCp9sKf6kzMkr7QjB.jpg",
      "adult": false,
      "overview": "The special bond that develops between plus-sized inflatable robot Baymax, and prodigy Hiro Hamada, who team up with a group of friends to form a band of high-tech heroes.",
      "release_date": "2014-10-24"
    },
    {
      "vote_count": 2701,
      "id": 284053,
      "video": false,
      "vote_average": 7.4,
      "title": "Thor: Ragnarok",
      "popularity": 191.354831,
      "poster_path": "/oSLd5GYGsiGgzDPKTwQh7wamO8t.jpg",
      "original_language": "en",
      "original_title": "Thor: Ragnarok",
      "genre_ids": [
        28,
        12,
        35,
        14,
        878
      ],
      "backdrop_path": "/5wNUJs23rT5rTBacNyf5h83AynM.jpg",
      "adult": false,
      "overview": "Thor is imprisoned on the other side of the universe and finds himself in a race against time to get back to Asgard to stop Ragnarok, the prophecy of destruction to his homeworld and the end of Asgardian civilization, at the hands of an all-powerful new threat, the ruthless Hela.",
      "release_date": "2017-10-25"
    },
    {
      "vote_count": 70,
      "id": 399055,
      "video": false,
      "vote_average": 6.3,
      "title": "The Shape of Water",
      "popularity": 177.335423,
      "poster_path": "/iLYLADGA5oKGM92Ns1j9CDgk3iI.jpg",
      "original_language": "en",
      "original_title": "The Shape of Water",
      "genre_ids": [
        18,
        14,
        10749
      ],
      "backdrop_path": "/6rhXCI4I6FRTWMka7hz39dQCiL7.jpg",
      "adult": false,
      "overview": "An other-worldly story, set against the backdrop of Cold War era America circa 1962, wher\ne a mute janitor working at a lab falls in love with an amphibious man being held captive there and devises a plan to help him escape.",
      "release_date": "2017-12-01"
    }
  ]
}